id;sale;min_price;max_price;min_amount;max_amount;min_share;start_date;end_date
1;94728;61495;15335;91185;58622;13911;2019-10-08T23:46:54;2019-10-09T09:30:14
2;61145;25601;1811;72609;87212;59296;2019-10-08T13:33:08;2019-10-09T09:28:11
3;56513;91875;69665;79008;92249;2302;2019-10-08T18:56:58;2019-10-08T20:17:25
4;15253;77124;57628;37443;60671;6892;2019-10-09T01:44:38;2019-10-09T10:04:02
5;73644;10424;93436;84043;92556;91068;2019-10-09T01:06:10;2019-10-09T08:58:32
6;11323;23590;98484;16552;83889;18632;2019-10-09T08:55:52;2019-10-08T15:49:24
7;92084;33214;86989;31144;51883;22739;2019-10-08T21:43:57;2019-10-08T21:20:01
8;39900;37930;5476;74424;33519;20557;2019-10-08T16:39:17;2019-10-08T17:00:58
9;463;60372;33349;11426;39816;41450;2019-10-08T23:01:32;2019-10-08T15:11:55
10;91985;92296;34634;46570;34695;48083;2019-10-08T18:13:23;2019-10-08T13:52:49
