{
    "name": "RatingTag",
    "fields": [
        {
            "fieldName": "name",
            "fieldType": "String"
        },
        {
            "fieldName": "eq",
            "fieldType": "BigDecimal"
        },
        {
            "fieldName": "code",
            "fieldType": "String"
        }
    ],
    "relationships": [],
    "changelogDate": "20191009101159",
    "entityTableName": "rating_tag",
    "dto": "no",
    "pagination": "pagination",
    "service": "serviceClass",
    "jpaMetamodelFiltering": false,
    "fluentMethods": true,
    "clientRootFolder": "",
    "applications": "*"
}